#date dist N score kneeling prone standing comp outside
2022-04-24 50 60 493 169 157 167 1 0
2022-06-18 50 60 548 180 191 177 1 1
2022-08-27 50 60 557 178 196 183 1 1
2022-09-04 50 60 539 176 187 176 1 1
